﻿## Interface: 30300
## Title:|cffffe00a<|r|cffff7d0aDBM|r|cffffe00a>|r |cff0055FFOptions GUI|r
## Title-zhCN: |cffffe00a<|r|cffff7d0aDBM|r|cffffe00a>|r |cff0055FF设置界面|r
## Title-ruRU:|cffffe00a<|r|cffff7d0aDBM|r|cffffe00a>|r |cff0055FFПараметры GUI|r
## Title-zhTW: |cffffe00a<|r|cffff7d0aDBM|r|cffffe00a>|r |cff0055FF使用者界面設定|r
## Title-koKR:|cffffe00a<|r|cffff7d0aDBM|r|cffffe00a>|r |cff0055FF옵션 GUI|r
## Title-esES:|cffffe00a<|r|cffff7d0aDBM|r|cffffe00a>|r |cff0055FFOpciones|r
## Title-esMX:|cffffe00a<|r|cffff7d0aDBM|r|cffffe00a>|r |cff0055FFOpciones|r
## Notes: GUI for Deadly Boss Mods
## Notes-zhCN: Deadly Boss Mods的设置界面
## Notes-ruRU: Графический интерфейс пользователя DBM
## Notes-zhTW: Deadly Boss Mods的使用者界面
## Notes-koKR: 죽이는 보스 모드를 위한 GUI
## Notes-esES: Gui para Deadly Boss Mods
## Notes-esMX: Gui para Deadly Boss Mods
## RequiredDeps: DBM-Core
## LoadOnDemand: 1
## DefaultState: enabled
## URL: https://gitlab.com/knights-of-sunwell/dbm-sirus
localization.en.lua
localization.de.lua
localization.cn.lua
localization.ru.lua
localization.fr.lua
localization.tw.lua
localization.kr.lua
localization.es.lua
DBM-GUI_DropDown.xml
DBM-GUI_Templates.xml
DBM-GUI.lua
DBM-GUI_DropDown.lua